<?xml version="1.0" encoding="UTF-8" standalone="no"?>
<!-- Created with Inkscape (http://www.inkscape.org/) -->

<svg
   xmlns:dc="http://purl.org/dc/elements/1.1/"
   xmlns:cc="http://creativecommons.org/ns#"
   xmlns:rdf="http://www.w3.org/1999/02/22-rdf-syntax-ns#"
   xmlns:svg="http://www.w3.org/2000/svg"
   xmlns="http://www.w3.org/2000/svg"
   xmlns:xlink="http://www.w3.org/1999/xlink"
   xmlns:sodipodi="http://sodipodi.sourceforge.net/DTD/sodipodi-0.dtd"
   xmlns:inkscape="http://www.inkscape.org/namespaces/inkscape"
   width="512"
   height="512"
   viewBox="0 0 135.46666 135.46667"
   version="1.1"
   id="svg8"
   inkscape:version="0.92.4 (5da689c313, 2019-01-14)"
   sodipodi:docname="boots.svg">
  <defs
     id="defs2" />
  <sodipodi:namedview
     id="base"
     pagecolor="#ffffff"
     bordercolor="#666666"
     borderopacity="1.0"
     inkscape:pageopacity="0.0"
     inkscape:pageshadow="2"
     inkscape:zoom="1.2830121"
     inkscape:cx="256.95269"
     inkscape:cy="265.68707"
     inkscape:document-units="px"
     inkscape:current-layer="layer1"
     showgrid="false"
     units="px"
     inkscape:window-width="1919"
     inkscape:window-height="1149"
     inkscape:window-x="1"
     inkscape:window-y="1"
     inkscape:window-maximized="1"
     inkscape:snap-global="false">
    <inkscape:grid
       type="xygrid"
       id="grid840" />
  </sodipodi:namedview>
  <metadata
     id="metadata5">
    <rdf:RDF>
      <cc:Work
         rdf:about="">
        <dc:format>image/svg+xml</dc:format>
        <dc:type
           rdf:resource="http://purl.org/dc/dcmitype/StillImage" />
        <dc:title></dc:title>
      </cc:Work>
    </rdf:RDF>
  </metadata>
  <g
     inkscape:label="Layer 1"
     inkscape:groupmode="layer"
     id="layer1"
     transform="translate(0,-161.53332)">
    <g
       id="g4595">
      <path
         inkscape:connector-curvature="0"
         d="M 30.150511,268.19157 H 47.06313 M 17.808868,223.68843 H 61.141745 M 17.808868,245.94001 H 57.667801 M 17.808868,201.43688 h 43.332877 m -44.429911,55.6289 H 57.667801 M 16.711834,212.56265 h 43.515715 m -43.515715,22.25156 h 42.23584 M 29.831376,190.31109 h 18.599055"
         style="opacity:1;vector-effect:none;fill:none;fill-opacity:1;stroke:#000000;stroke-width:5.06499958;stroke-linecap:butt;stroke-linejoin:miter;stroke-miterlimit:4;stroke-dasharray:none;stroke-dashoffset:0;stroke-opacity:1"
         id="path4589"
         sodipodi:nodetypes="cccccccccccccccc" />
      <path
         style="fill:none;stroke:#f7f7f7;stroke-width:15.08125019;stroke-linecap:butt;stroke-linejoin:miter;stroke-miterlimit:4;stroke-dasharray:none;stroke-opacity:1"
         d="m 38.378276,180.62976 c 13.671728,-0.41766 21.901618,8.1103 22.499056,27.6627 0.396431,12.97403 0.3665,15.85196 -2.094269,27.49947 -1.327987,6.28574 -0.912968,16.68179 -0.964385,22.75975 -0.08961,10.59241 -7.549425,19.01938 -19.048822,19.37068 -16.213847,0.49531 -20.499734,-15.28635 -20.985502,-31.1841 l -1.094372,-35.81561 c -0.37968,-12.42583 2.941036,-29.72019 21.688294,-30.29289 z"
         id="path4597"
         inkscape:connector-curvature="0"
         sodipodi:nodetypes="ssssssss" />
      <path
         sodipodi:nodetypes="ssssssss"
         inkscape:connector-curvature="0"
         id="path4593"
         d="m 38.378276,180.62976 c 13.671728,-0.41766 21.901618,8.1103 22.499056,27.6627 0.396431,12.97403 0.3665,15.85196 -2.094269,27.49947 -1.327987,6.28574 -0.912968,16.68179 -0.964385,22.75975 -0.08961,10.59241 -7.549425,19.01938 -19.048822,19.37068 -16.213847,0.49531 -20.499734,-15.28635 -20.985502,-31.1841 l -1.094372,-35.81561 c -0.37968,-12.42583 2.941036,-29.72019 21.688294,-30.29289 z"
         style="fill:none;stroke:#000000;stroke-width:5.06500006;stroke-linecap:butt;stroke-linejoin:miter;stroke-miterlimit:4;stroke-dasharray:none;stroke-opacity:1" />
    </g>
    <use
       x="0"
       y="0"
       xlink:href="#g4595"
       id="use4599"
       transform="matrix(-0.96746379,0,0,0.967352,131.56521,7.9450906)"
       width="100%"
       height="100%"
       style="stroke-width:1.03369009" />
  </g>
</svg>
